{
    "key": "group_5e829902bb074",
    "title": "Simple Page",
    "fields": [
        {
            "key": "field_5e82990ae7e92",
            "label": "Meta",
            "name": "",
            "type": "tab",
            "instructions": "",
            "required": 0,
            "conditional_logic": 0,
            "wrapper": {
                "width": "",
                "class": "",
                "id": ""
            },
            "placement": "top",
            "endpoint": 0
        },
        {
            "key": "field_5e82990fe7e93",
            "label": "Meta",
            "name": "meta",
            "type": "component_field",
            "instructions": "",
            "required": 0,
            "conditional_logic": 0,
            "wrapper": {
                "width": "",
                "class": "",
                "id": ""
            },
            "field_group_key": "group_5eaa7b9267b2a",
            "repeatable": 0,
            "layout": "block",
            "button_label": "",
            "appearances": "",
            "min": null,
            "max": null,
            "collapsed": "",
            "sub_fields": []
        },
        {
            "key": "field_5e829918e7e94",
            "label": "Content",
            "name": "",
            "type": "tab",
            "instructions": "",
            "required": 0,
            "conditional_logic": 0,
            "wrapper": {
                "width": "",
                "class": "",
                "id": ""
            },
            "placement": "top",
            "endpoint": 0
        },
        {
            "key": "field_5e829920e7e95",
            "label": "Content",
            "name": "content",
            "type": "wysiwyg",
            "instructions": "",
            "required": 0,
            "conditional_logic": 0,
            "wrapper": {
                "width": "",
                "class": "",
                "id": ""
            },
            "default_value": "",
            "tabs": "all",
            "toolbar": "full",
            "media_upload": 1,
            "delay": 0
        },
        {
            "key": "field_5e82c9eba2af2",
            "label": "Extra",
            "name": "",
            "type": "tab",
            "instructions": "",
            "required": 0,
            "conditional_logic": 0,
            "wrapper": {
                "width": "",
                "class": "",
                "id": ""
            },
            "placement": "top",
            "endpoint": 0
        },
        {
            "key": "field_5e8543fbae032",
            "label": "Accordions",
            "name": "accordions",
            "type": "component_field",
            "instructions": "",
            "required": 0,
            "conditional_logic": 0,
            "wrapper": {
                "width": "",
                "class": "",
                "id": ""
            },
            "field_group_key": "group_5e8543e286484",
            "repeatable": 0,
            "layout": "row",
            "button_label": "",
            "appearances": "",
            "min": null,
            "max": null,
            "collapsed": "",
            "sub_fields": []
        },
        {
            "key": "field_5e82c9f5a2af4",
            "label": "Three Across Tiles",
            "name": "three_across_tiles",
            "type": "group",
            "instructions": "",
            "required": 0,
            "conditional_logic": 0,
            "wrapper": {
                "width": "",
                "class": "",
                "id": ""
            },
            "layout": "block",
            "sub_fields": [
                {
                    "key": "field_5e82ca4a673b4",
                    "label": "Enabled",
                    "name": "enabled",
                    "type": "true_false",
                    "instructions": "",
                    "required": 0,
                    "conditional_logic": 0,
                    "wrapper": {
                        "width": "",
                        "class": "",
                        "id": ""
                    },
                    "message": "",
                    "default_value": 0,
                    "ui": 1,
                    "ui_on_text": "",
                    "ui_off_text": ""
                },
                {
                    "key": "field_5e82ca4f673b5",
                    "label": "Tiles",
                    "name": "tiles",
                    "type": "component_field",
                    "instructions": "",
                    "required": 1,
                    "conditional_logic": [
                        [
                            {
                                "field": "field_5e82ca4a673b4",
                                "operator": "==",
                                "value": "1"
                            }
                        ]
                    ],
                    "wrapper": {
                        "width": "",
                        "class": "",
                        "id": ""
                    },
                    "field_group_key": "group_5e82cb5c29725",
                    "repeatable": 1,
                    "min": 3,
                    "max": 3,
                    "layout": "row",
                    "button_label": "",
                    "appearances": "",
                    "collapsed": "",
                    "sub_fields": []
                }
            ]
        }
    ],
    "location": [
        [
            {
                "param": "page_template",
                "operator": "==",
                "value": "default"
            }
        ]
    ],
    "menu_order": 0,
    "position": "normal",
    "style": "default",
    "label_placement": "top",
    "instruction_placement": "label",
    "hide_on_screen": [
        "the_content"
    ],
    "active": true,
    "description": "",
    "is_acf_component": 0,
    "acf_component_defaults": {
        "repeatable": "0",
        "min": "",
        "max": "",
        "layout": "block",
        "button_label": "",
        "appearances": ""
    },
    "modified": 1596671147
}